<?xml version="1.0" standalone="no"?>
<!DOCTYPE svg PUBLIC "-//W3C//DTD SVG 1.1//EN" "http://www.w3.org/Graphics/SVG/1.1/DTD/svg11.dtd" >
<svg xmlns="http://www.w3.org/2000/svg">
<metadata>
<json>
{
	"fontFamily": "Fitzgerald",
	"version": "Version 1.0",
	"fontId": "Fitzgerald",
	"psName": "Fitzgerald",
	"subFamily": "Regular",
	"fullName": "Fitzgerald",
	"description": "Generated by IcoMoon"
}
</json>
</metadata>
<defs>
<font id="Fitzgerald" horiz-adv-x="1024">
<font-face units-per-em="1024" ascent="960" descent="-64" />
<missing-glyph horiz-adv-x="1024" />
<glyph unicode="&#x20;" d="" horiz-adv-x="512" />
<glyph unicode="&#xe600;" d="M195.86-19.092l-5.478 125.235-122.522 2.816 153.088 153.083-93.747 51.354 322.662 49.567-49.562-322.668-51.405 93.696-153.037-153.083zM432.148 94.725l12.544 81.408c25.293-6.758 52.014-10.035 79.514-9.421 155.028 3.789 277.76 132.659 273.971 287.688-3.738 154.988-132.659 277.76-287.642 273.971-155.039-3.789-277.76-132.659-274.028-287.642 0.666-25.492 4.608-50.068 11.571-73.37l-81.613-12.488c-7.066 26.829-11.162 54.886-11.827 83.866-4.915 200.243 153.6 366.746 353.843 371.661 200.289 4.864 366.802-153.754 371.661-353.997 4.92-200.294-153.651-366.746-353.889-371.656-32.456-0.773-63.949 2.708-94.106 9.979zM457.236 257.9l11.725 76.646c15.77-6.753 33.178-10.342 51.41-9.882 67.84 1.638 121.549 58.061 119.859 125.901-1.592 67.789-58.010 121.549-125.85 119.91-67.84-1.69-121.554-58.061-119.91-125.952 0.512-18.893 5.222-36.762 13.261-52.634l-77.517-11.873c-7.066 19.61-11.162 40.699-11.725 62.664-2.662 109.773 84.275 201.068 193.997 203.725 109.829 2.714 201.068-84.224 203.781-193.997 2.662-109.773-84.28-201.011-194.048-203.725-22.692-0.563-44.503 2.719-64.983 9.216zM460.462 446.162c-0.763 31.437 24.115 57.549 55.506 58.317 31.432 0.717 57.539-24.115 58.312-55.501 0.819-31.442-24.11-57.6-55.501-58.368-31.437-0.763-57.549 24.115-58.317 55.552z" />
<glyph unicode="&#xe601;" d="M398.49 37.064v58.568c38.4 6.195 57.958 24.32 58.778 54.277h27.034l-50.739 440.371c-37.837-9.062-75.469-22.938-112.947-39.987-44.39-27.75-76.595-44.902-129.894-50.074l85.248-207.053h16.896c-29.44-43.208-97.229-65.838-161.69-51.302-37.12 8.346-65.946 27.438-82.278 51.302h19.456l86.067 209.152c-1.894 0.87-3.738 1.894-5.53 3.072-17.92 11.981-22.733 36.198-10.803 54.118 11.93 17.92 36.147 22.784 54.067 10.854 3.635-2.458 6.707-5.325 9.216-8.55 44.237 6.144 58.47 20.378 94.208 41.779l9.574 5.99-0.051 0.154c59.699 33.28 131.123 52.429 205.363 53.555v0h0.768c74.291-1.126 145.659-20.275 205.358-53.555l-0.051-0.154 9.569-5.99c35.948-21.504 50.386-35.732 94.776-41.928 12.442 16.123 35.43 20.122 52.588 8.704 17.92-11.981 22.728-36.198 10.798-54.118-3.43-5.12-7.885-9.216-12.902-12.134l86.83-210.944h16.901c-29.44-43.208-97.178-65.838-161.638-51.302-37.12 8.346-66.002 27.438-82.278 51.302h19.41l85.038 206.643c-56.115 4.608-88.878 21.914-134.548 50.483-37.176 16.947-74.501 30.72-112.082 39.731l-50.739-440.115h27.085c0.819-29.957 20.326-48.082 58.772-54.277v-58.568h-225.628zM258.15 293.166l-84.685 205.824c-0.87-0.051-1.792-0.051-2.662-0.102l-84.685-205.722h172.032zM940.447 293.166l-84.741 205.926c-0.87-0.102-1.792-0.154-2.662-0.205l-84.634-205.722h172.037zM459.162 716.539c-15.002 14.95-22.579 34.509-22.682 54.17 8.141-2.97 17.152-5.53 26.982-7.629 43.571-9.062 91.904-5.786 127.841 6.707-0.353-19.302-7.931-38.548-22.682-53.243-30.203-30.213-79.252-30.213-109.46-0.005zM467.507 782.74c-10.445 2.406-19.917 5.427-28.314 9.011 3.43 12.544 10.086 24.428 19.968 34.253 30.208 30.259 79.258 30.259 109.46 0 10.138-10.086 16.85-22.323 20.224-35.226-33.434-13.568-79.759-17.459-121.339-8.038z" />
<glyph unicode="&#xe602;" d="M280.494 42.276v122.214c47.411 0.768 85.094 21.299 84.424 46.080-0.66 24.525-38.548 44.288-85.197 44.851-15.206 241.306-5.376 462.285 197.376 526.597l71.27 68.808c11.259 8.141 38.042-1.894 39.322-17.198l-2.458-81.101 196.608-154.829c22.118-16.538 22.118-63.386 0.87-79.974-24.622-23.296-52.27-39.27-83.348-38.554-10.501 9.216-20.941 19.712-31.442 35.379-38.651-4.147-78.228-4.915-123.438 17.306-5.381-17.459 9.062-30.976 25.912-44.032 91.489-72.909 112.282-151.711 109.261-232.448-2.15 0.051-4.301 0.102-6.508 0.051-48.169-0.353-86.682-21.038-86.011-46.080 0.66-25.083 40.289-45.21 88.422-44.851 1.838 0 3.692 0.051 5.53 0.154v-122.368h-400.594z" />
<glyph unicode="&#xe603;" d="M686.111 48.092l-191.334 287.032 65.536 157.281h170.394l191.334-286.971c6.4-9.631 3.789-22.579-5.734-28.928l-201.267-134.2c-9.574-6.405-22.579-3.845-28.928 5.786zM113.644 118.538v298.752h145.608v-298.752h-145.608zM300.063 118.538v410.47h145.659v-410.47h-145.659zM486.533 118.538v167.578l111.713-167.578h-111.713zM778.988 147.318l16.287 11.049-15.155 22.38c10.701 9.37 16.896 20.332 18.478 32.819 1.592 12.488-1.997 25.19-10.701 37.99-9.062 13.409-19.558 21.499-31.386 24.172-11.827 2.708-27.341 2.56-46.285-0.358-8.806-0.722-15.667-0.051-20.634 1.94-4.915 2.048-9.313 5.888-13.204 11.571-4.050 5.99-6.252 11.628-6.661 16.85-0.353 5.222 1.69 9.318 6.093 12.339 4.301 2.918 9.313 2.862 15.155-0.102 5.837-2.918 11.725-8.76 17.664-17.521l31.944 21.658c-9.83 14.438-21.038 23.962-33.741 28.57-12.692 4.562-25.339 4.101-37.939-1.331l-16.379 24.172-16.179-11.008 16.123-23.808c-10.798-9.421-16.947-20.531-18.432-33.382-1.536-12.902 1.894-25.498 10.348-37.99 9.267-13.619 19.809-21.76 31.59-24.371 11.776-2.611 27.080-2.202 46.024 1.229 8.55 0.609 15.309-0.061 20.275-2.048 4.972-2.002 9.574-6.149 13.824-12.442 4.045-5.939 6.047-11.571 6.093-16.901 0-5.381-2.355-9.631-7.066-12.851-5.325-3.579-11.167-4.301-17.362-2.202-6.344 2.15-12.902 8.289-19.758 18.432l-31.949-21.658c11.315-16.691 23.803-26.619 37.53-29.901 13.722-3.282 27.136-1.592 40.192 5.12l15.212-22.415zM633.221 417.039c0.768 3.579 0.717 7.060 0.051 10.388-2.043 10.24-10.035 18.842-20.941 20.992-14.387 2.867-28.467-6.451-31.278-20.895-2.207-10.952 2.56-21.601 11.259-27.438 2.821-1.838 6.093-3.231 9.574-3.942 14.438-2.913 28.518 6.456 31.334 20.895zM821.535 411.658l-79.309 118.938h-66.304v319.795h145.613v-438.733zM486.533 419.338v272.845h145.659v-161.587h-99.277l-46.382-111.258z" />
<glyph unicode="&#xe604;" d="M174.541 116.572v117.709c0 12.8 10.394 23.188 23.194 23.188h500.685c12.8 0 23.188-10.388 23.188-23.188v-117.709c0-12.851-10.388-23.25-23.188-23.25h-500.685c-12.8 0-23.194 10.399-23.194 23.25zM285.645 155.228c11.162 14.838 8.141 35.942-6.707 47.099-14.899 11.208-36.050 8.141-47.16-6.758-11.162-14.802-8.141-35.942 6.712-47.099 14.899-11.162 36.045-8.141 47.155 6.758zM174.541 321.111v117.658c0 12.8 10.394 23.194 23.194 23.194h310.323c56.11-57.902 139.412-77.261 213.55-53.862v-86.989c0-12.851-10.388-23.188-23.188-23.188h-500.634c-12.851-0.005-23.245 10.337-23.245 23.188zM866.816 355.011l-107.776 107.822c-2.97 2.918-5.171 6.349-6.656 9.984-67.487-39.429-155.699-28.621-211.456 30.72-64.768 69.018-61.389 177.613 7.624 242.437 68.972 64.819 177.567 61.389 242.386-7.578 51.963-55.347 60.104-136.141 25.651-199.424 4.193-1.434 8.090-3.84 11.412-7.168l107.832-107.771c11.725-11.73 11.725-30.781 0-42.552l-26.47-26.47c-11.725-11.73-30.822-11.73-42.547 0zM285.645 359.721c11.11 14.848 8.141 35.988-6.707 47.15-14.899 11.162-36.050 8.141-47.16-6.758-11.162-14.838-8.141-35.988 6.712-47.099 14.899-11.162 35.994-8.146 47.155 6.707zM174.541 525.245v117.76c0 12.749 10.394 23.142 23.194 23.142h259.328c-15.56-53.965-9.216-113.51 20.536-164.096h-279.864c-12.8 0.005-23.194 10.348-23.194 23.194zM747.418 534.257c47.872 44.954 50.176 120.269 5.222 168.197-44.954 47.821-120.269 50.227-168.141 5.222-47.877-44.954-50.232-120.269-5.228-168.141 44.959-47.872 120.274-50.227 168.146-5.279zM285.645 563.395c11.11 14.848 8.141 35.994-6.707 47.104-14.899 11.162-36.050 8.141-47.16-6.656-11.162-14.95-8.141-36.045 6.712-47.155 14.899-11.213 35.994-8.197 47.155 6.707z" />
<glyph unicode="&#xe605;" d="M163.2 104.166v280.73h136.755v-280.73h-136.755zM338.355 104.166v385.69h136.858v-385.69h-136.858zM513.562 104.166v539.034h136.812v-539.034h-136.812zM691.482 104.212v687.616h136.858v-687.616h-136.858z" />
<glyph unicode="&#xe606;" d="M492.718 76.39l-321.428 482.099 110.131 264.243h286.264l321.382-482.099c10.752-16.128 6.349-37.888-9.682-48.589l-338.022-225.388c-16.133-10.747-37.944-6.395-48.645 9.733zM648.73 243.098l27.392 18.58-25.498 37.586c18.022 15.713 28.365 34.094 31.032 55.091 2.662 20.992-3.328 42.291-17.971 63.795-15.258 22.579-32.819 36.096-52.69 40.648-19.917 4.511-45.87 4.306-77.768-0.66-14.802-1.178-26.368-0.108-34.662 3.277-8.243 3.379-15.667 9.882-22.118 19.456-6.861 10.086-10.598 19.456-11.213 28.262-0.614 8.806 2.816 15.667 10.24 20.736 7.168 4.915 15.667 4.808 25.446-0.108 9.779-4.966 19.712-14.797 29.696-29.491l53.606 36.352c-16.486 24.269-35.379 40.294-56.673 48.026-21.304 7.68-42.552 6.912-63.698-2.253l-27.546 40.602-27.187-18.483 27.136-39.987c-18.125-15.821-28.467-34.509-31.027-56.115s3.277-42.803 17.408-63.744c15.565-22.886 33.229-36.557 53.043-40.96 19.814-4.398 45.568-3.732 77.414 2.048 14.336 1.024 25.656-0.102 33.997-3.482 8.351-3.328 16.082-10.296 23.25-20.838 6.753-9.984 10.132-19.456 10.184-28.416 0-8.96-3.948-16.128-11.873-21.555-8.909-6.047-18.688-7.27-29.189-3.692-10.547 3.64-21.601 13.932-33.121 30.925l-53.668-36.393c18.995-28.006 39.992-44.698 63.032-50.176 23.040-5.53 45.512-2.668 67.528 8.55l25.498-37.581zM403.942 696.115c1.229 5.99 1.178 11.878 0.051 17.51-3.379 17.203-16.896 31.59-35.174 35.226-24.218 4.813-47.821-10.854-52.582-35.123-3.738-18.33 4.301-36.25 18.944-46.029 4.71-3.174 10.189-5.478 16.077-6.656 24.264-4.864 47.872 10.854 52.685 35.072z" />
<glyph unicode="&#xe607;" d="M409.185 2.662c0 14.341 14.387 23.557 28.723 23.557h116.685c14.228 0 28.718-9.216 28.718-23.557 0-14.28-14.49-23.393-28.718-23.393h-116.685c-14.336-0.005-28.723 9.16-28.723 23.393zM384.66 59.034c0 14.336 14.336 23.45 28.672 23.45h171.576c14.336 0 28.718-9.114 28.718-23.45s-14.387-23.501-28.718-23.501h-171.576c-14.336 0-28.672 9.165-28.672 23.501zM441.851 115.354c0 14.234 14.438 23.45 28.718 23.45h57.093c14.234 0 28.677-9.216 28.677-23.45 0-14.392-14.438-23.501-28.677-23.501h-57.088c-14.285 0-28.723 9.114-28.723 23.501zM362.179 92.211l-0.609 5.274c-20.378 162.668-56.428 271.002-82.33 341.76l-11.372 30.612-0.512 1.638c-16.64 57.293-12.488 120.632 16.179 178.125 60.672 121.242 208.282 170.445 329.523 109.773 107.668-53.811 158.459-176.23 126.408-288.051l-1.536-3.64-15.104-37.786-2.56-5.012-34.043-97.434c-28.677-93.44-41.574-173.363-46.136-229.734l-0.461-5.53h-64.763l1.382 20.173c7.526 81.812 30.31 200.96 83.814 336.532l1.126 2.97 1.485 2.918 2.207 4.198c4.603 9.165 8.346 18.637 11.208 28.006l0.312 1.024 0.404 1.536c23.916 82.176-13.614 172.237-92.826 211.866-89.139 44.544-197.837 8.346-242.381-80.794-7.992-15.918-13.414-32.41-16.328-48.947l-1.951-49.51 6.2-32.307 0.461-1.587c2.299-7.731 5.171-15.411 8.499-22.835l0.819-1.946 0.763-1.894c26.214-71.424 62.203-179.712 83.717-339.712l3.43-29.701h-65.029zM803.784 374.63l-37.381 14.694c-7.117 2.867-10.701 10.854-7.936 18.028l12.339 31.278c2.714 7.122 10.854 10.701 18.028 7.885l37.376-14.643c7.27-2.867 10.593-10.957 7.936-18.068l-12.339-31.283c-2.816-7.122-10.906-10.655-18.022-7.89zM179.246 382.566l-12.339 31.237c-2.714 7.117 0.768 15.206 7.936 17.971l37.33 14.746c7.214 2.816 15.304-0.666 18.068-7.834l12.339-31.278c2.708-7.168-0.722-15.212-7.885-18.028l-37.376-14.694c-7.122-2.821-15.212 0.763-18.074 7.88zM196.808 582.246l-38.758 10.65c-7.322 2.048-11.781 9.626-9.682 17.101l8.909 32.358c1.946 7.373 9.626 11.776 17.152 9.728l38.661-10.701c7.368-1.997 11.878-9.574 9.728-17.050l-8.909-32.41c-2.048-7.322-9.631-11.776-17.101-9.677zM788.321 591.923l-8.852 32.41c-2.15 7.424 2.299 15.048 9.677 17.050l38.758 10.701c7.475 2.043 15.002-2.355 17.050-9.682l8.904-32.353c2.15-7.526-2.355-15.104-9.723-17.157l-38.656-10.65c-7.48-2.094-15.109 2.412-17.157 9.682zM297.62 777.779l-28.472 28.416c-5.32 5.427-5.371 14.285 0 19.661l23.762 23.762c5.478 5.473 14.285 5.473 19.712 0l28.365-28.416c5.478-5.376 5.478-14.285-0.051-19.712l-23.706-23.706c-5.381-5.381-14.234-5.381-19.61-0.005zM681.876 777.728l-23.757 23.803c-5.432 5.376-5.432 14.285 0 19.661l28.416 28.365c5.325 5.53 14.336 5.53 19.661 0l23.762-23.706c5.473-5.376 5.473-14.285 0-19.661l-28.365-28.467c-5.484-5.32-14.239-5.32-19.717 0.005zM472.161 859.546v40.141c0 7.68 6.252 13.875 13.875 13.875h33.638c7.68 0 13.926-6.246 13.926-13.875v-40.141c0-7.68-6.195-13.972-13.926-13.972h-33.638c-7.68-0.005-13.875 6.241-13.875 13.972z" />
<glyph unicode="&#xe608;" d="M214.17 95.309l-0.108 326.81-49.971 0.056c-18.888 0-23.706 11.208-10.798 24.878l344.929 367.821c12.856 13.722 33.797 13.722 46.694 0l344.837-367.821c12.902-13.722 8.033-24.934-10.757-24.934h-45.926l0.051-326.81c0-13.466-10.906-24.474-24.422-24.474h-570.107c-13.517 0-24.422 11.008-24.422 24.474zM543.13 165.299v49.106c25.702 3.169 46.080 13.312 61.235 30.51 15.155 17.203 22.682 39.89 22.682 67.994 0 29.44-7.526 52.224-22.579 68.357-15.048 16.123-38.344 31.688-69.934 46.638-13.978 7.941-23.603 15.877-28.979 23.91-5.381 8.090-8.038 18.381-8.038 30.874 0 13.158 2.406 23.859 7.117 32.102 4.813 8.192 12.037 12.288 21.709 12.288 9.421 0 16.952-5.12 22.733-15.514s8.648-25.19 8.648-44.39h70.093c0 31.744-7.219 57.549-21.606 77.363-14.392 19.814-33.843 32-58.368 36.659v52.992h-35.533v-52.275c-25.856-3.123-46.433-13.563-61.793-31.334-15.411-17.766-23.091-40.346-23.091-67.635 0-29.952 7.47-52.89 22.523-68.859 15.104-15.974 38.605-31.032 70.508-45.158 13.466-7.731 22.932-15.616 28.416-23.654 5.376-8.090 8.090-19.046 8.090-32.87 0-13.005-2.714-23.501-8.090-31.539-5.478-8.090-13.363-12.134-23.706-12.134-11.725 0-21.151 4.813-28.421 14.438-7.214 9.626-10.798 25.549-10.798 47.77h-70.144c0.051-36.562 8.653-64.261 25.907-83.149 17.311-18.944 39.122-30.054 65.69-33.382v-49.106h35.732z" />
<glyph unicode="&#xe609;" d="M345.503 120.479l-199.788 124.268c-34.611 21.555-45.261 67.174-23.706 101.837l175.877 282.624c21.555 34.611 67.169 45.261 101.837 23.654l199.731-124.314c34.668-21.555 45.317-67.174 23.706-101.837l-27.085-43.576-62.612 38.963 27.085 43.776-199.992 124.365-175.918-282.824 200.033-124.314 90.732 145.715 62.566-38.963-90.624-145.715c-21.612-34.611-67.18-45.261-101.842-23.66zM628.434 253.394l-199.782 124.314c-34.668 21.555-45.266 67.174-23.706 101.786l28.826 46.336 62.566-38.963-28.723-46.541 199.936-124.314 175.877 282.778-199.992 124.365-89.702-144.077-62.618 38.912 89.708 144.077c21.504 34.662 67.118 45.312 101.786 23.654l199.834-124.268c34.611-21.555 45.261-67.123 23.654-101.786l-175.877-282.624c-21.555-34.601-67.174-45.256-101.786-23.649z" />
</font></defs></svg>